…
## [1] TRUE
## 
## $extract
## NULL
## 
## $save_pred
## [1] FALSE
## 
## $pkgs
## NULL
set.seed(2117)
(knn_grid <- knn_mod %>% 
  parameters() %>% 
  grid_regular(levels = c(15, 5)))
## # A tibble: 75 x 2
##    neighbors weight_func
##        <int> <chr>      
##  1         1 rectangular
##  2         2 rectangular
##  3         3 rectangular
##  4         4 rectangular
##  5         5 rectangular
##  6         6 rectangular
##  7         7 rectangular
##  8         8 rectangular
##  9         9 rectangular
## 10        10 rectangular
## # … with 65 more rows
…
